verilog/Work/CPU_Project/CPU_Project.sim/sim_1/behav/xsim/pipeline_cpu_tb.vcd
$date
   Mon Sep 15 09:55:39 2025
$end

$version
  2025.1.0
  $dumpfile ("pipeline_cpu_tb.vcd") 
$end

$timescale
  1ps
$end

$scope module pipeline_cpu_tb $end
$var reg 1 ! clk $end
$var reg 1 " rst_n $end
$scope module uut $end
$var wire 1 # clk $end
$var wire 1 $ rst_n $end
$var wire 32 % pc_next [31:0] $end
$var wire 32 & pc_plus_4_if [31:0] $end
$var wire 32 ' pc_current [31:0] $end
$var wire 32 ( instruction_if [31:0] $end
$var wire 1 ) pc_write_en $end
$var wire 1 * if_id_write_en $end
$var wire 1 + hazard_stall $end
$var wire 1 , branch_taken_id $end
$var wire 32 - branch_target_addr_id [31:0] $end
$var wire 1 . jump_id $end
$var wire 32 / jump_target_addr_id [31:0] $end
$var wire 1 0 jr_id $end
$var wire 32 1 jr_target_addr_id [31:0] $end
$var reg 32 2 if_id_pc_plus_4 [31:0] $end
$var reg 32 3 if_id_instruction [31:0] $end
$var wire 32 4 instruction_id [31:0] $end
$var wire 32 5 pc_plus_4_id [31:0] $end
$var wire 1 6 reg_write_en_id $end
$var wire 1 7 mem_to_reg_sel_id $end
$var wire 1 8 mem_write_en_id $end
$var wire 1 9 mem_read_en_id $end
$var wire 1 : branch_en_id $end
$var wire 1 ; alu_src_sel_id $end
$var wire 1 < reg_dst_sel_id $end
$var wire 2 = alu_op_id [1:0] $end
$var wire 1 > jump_en_id $end
$var wire 1 ? jal_sel_id $end
$var wire 1 @ jr_sel_id $end
$var wire 1 A write_enable_wb $end
$var wire 5 B read_addr1_id [4:0] $end
$var wire 5 C read_addr2_id [4:0] $end
$var wire 5 D write_addr_wb [4:0] $end
$var wire 32 E write_data_wb [31:0] $end
$var wire 32 F read_data1_id [31:0] $end
$var wire 32 G read_data2_id [31:0] $end
$var wire 32 H sign_extended_imm_id [31:0] $end
$var wire 32 I branch_offset_shifted_id [31:0] $end
$var wire 1 J is_beq $end
$var wire 1 K is_bne $end
$var wire 1 L branch_condition_met_id $end
$var wire 5 M write_reg_id [4:0] $end
$var wire 5 N ex_rd [4:0] $end
$var wire 1 O ex_mem_read $end
$var reg 32 P id_ex_pc_plus_4 [31:0] $end
$var reg 32 Q id_ex_read_data1 [31:0] $end
$var reg 32 R id_ex_read_data2 [31:0] $end
$var reg 32 S id_ex_sign_extended_imm [31:0] $end
$var reg 5 T id_ex_rs [4:0] $end
$var reg 5 U id_ex_rt [4:0] $end
$var reg 5 V id_ex_write_reg [4:0] $end
$var reg 1 W id_ex_reg_write_en $end
$var reg 1 X id_ex_mem_to_reg_sel $end
$var reg 1 Y id_ex_mem_write_en $end
$var reg 1 Z id_ex_mem_read_en $end
$var reg 1 [ id_ex_alu_src_sel $end
$var reg 2 \ id_ex_alu_op [1:0] $end
$var reg 1 ] id_ex_jal_sel $end
$var reg 3 ^ id_ex_mem_op [2:0] $end
$var wire 32 _ pc_plus_4_ex [31:0] $end
$var wire 32 ` read_data1_ex [31:0] $end
$var wire 32 a read_data2_ex [31:0] $end
$var wire 32 b sign_extended_imm_ex [31:0] $end
$var wire 5 c rs_ex [4:0] $end
$var wire 5 d rt_ex [4:0] $end
$var wire 5 e write_reg_ex [4:0] $end
$var wire 1 f reg_write_en_ex $end
$var wire 1 g mem_to_reg_sel_ex $end
$var wire 1 h mem_write_en_ex $end
$var wire 1 i mem_read_en_ex $end
$var wire 1 j alu_src_sel_ex $end
$var wire 2 k alu_op_ex [1:0] $end
$var wire 1 l jal_sel_ex $end
$var wire 3 m mem_op_ex [2:0] $end
$var wire 2 n forward_a [1:0] $end
$var wire 2 o forward_b [1:0] $end
$var wire 1 p mem_reg_write_en $end
$var wire 5 q mem_rd [4:0] $end
$var wire 1 r wb_reg_write_en $end
$var wire 5 s wb_rd [4:0] $end
$var wire 32 t alu_input_a [31:0] $end
$var wire 32 u alu_input_b_prev [31:0] $end
$var wire 32 v alu_input_b [31:0] $end
$var wire 4 w alu_ctrl_signal [3:0] $end
$var wire 32 x alu_result_ex [31:0] $end
$var wire 1 y alu_zero_ex $end
$var wire 32 z mem_write_data_ex [31:0] $end
$var reg 32 { ex_mem_pc_plus_4 [31:0] $end
$var reg 32 | ex_mem_alu_result [31:0] $end
$var reg 1 } ex_mem_alu_zero $end
$var reg 32 ~ ex_mem_mem_write_data [31:0] $end
$var reg 5 !! ex_mem_write_reg [4:0] $end
$var reg 1 "! ex_mem_reg_write_en $end
$var reg 1 #! ex_mem_mem_to_reg_sel $end
$var reg 1 $! ex_mem_mem_write_en $end
$var reg 1 %! ex_mem_mem_read_en $end
$var reg 1 &! ex_mem_jal_sel $end
$var reg 3 '! ex_mem_mem_op [2:0] $end
$var wire 32 (! pc_plus_4_mem [31:0] $end
$var wire 32 )! alu_result_mem [31:0] $end
$var wire 1 *! alu_zero_mem $end
$var wire 32 +! mem_write_data_mem [31:0] $end
$var wire 5 ,! write_reg_mem [4:0] $end
$var wire 1 -! reg_write_en_mem $end
$var wire 1 .! mem_to_reg_sel_mem $end
$var wire 1 /! mem_write_en_mem $end
$var wire 1 0! mem_read_en_mem $end
$var wire 1 1! jal_sel_mem $end
$var wire 3 2! mem_op_mem [2:0] $end
$var wire 32 3! mem_read_data_mem [31:0] $end
$var wire 32 4! jal_data_mem [31:0] $end
$var reg 32 5! mem_wb_jal_data [31:0] $end
$var reg 32 6! mem_wb_mem_read_data [31:0] $end
$var reg 32 7! mem_wb_alu_result [31:0] $end
$var reg 5 8! mem_wb_write_reg [4:0] $end
$var reg 1 9! mem_wb_reg_write_en $end
$var reg 1 :! mem_wb_mem_to_reg_sel $end
$var reg 1 ;! mem_wb_jal_sel $end
$var wire 32 <! jal_data_wb [31:0] $end
$var wire 32 =! mem_read_data_wb [31:0] $end
$var wire 32 >! alu_result_wb [31:0] $end
$var wire 5 ?! write_reg_wb [4:0] $end
$var wire 1 @! reg_write_en_wb_in $end
$var wire 1 A! mem_to_reg_sel_wb $end
$var wire 1 B! jal_sel_wb $end
$var wire 32 C! normal_write_data_wb [31:0] $end
$var wire 1 D! reg_write_en_wb $end
$scope module pc_instance $end
$var wire 1 # clk $end
$var wire 1 $ rst_n $end
$var wire 1 E! stall $end
$var wire 1 , branch_taken $end
$var wire 1 . jump $end
$var wire 1 0 jump_reg $end
$var wire 32 - branch_addr [31:0] $end
$var wire 32 / jump_addr [31:0] $end
$var wire 32 1 jump_reg_addr [31:0] $end
$var reg 32 F! pc [31:0] $end
$upscope $end
$scope module imem_instance $end
$var wire 32 ' addr [31:0] $end
$var reg 32 G! instruction [31:0] $end
$upscope $end
$scope module ctrl_unit_instance $end
$var wire 6 H! opcode [31:26] $end
$var wire 6 I! funct [5:0] $end
$var reg 1 J! reg_write_en $end
$var reg 1 K! mem_to_reg_sel $end
$var reg 1 L! mem_write_en $end
$var reg 1 M! mem_read_en $end
$var reg 1 N! branch_en $end
$var reg 1 O! alu_src_sel $end
$var reg 1 P! reg_dst_sel $end
$var reg 2 Q! alu_op [1:0] $end
$var reg 1 R! jump_en $end
$var reg 1 S! jal_sel $end
$var reg 1 T! jr_sel $end
$var wire 1 U! is_rtype $end
$upscope $end
$scope module reg_file_instance $end
$var wire 1 # clk $end
$var wire 1 $ rst_n $end
$var wire 1 D! write_enable $end
$var wire 5 B read_addr1 [4:0] $end
$var wire 5 C read_addr2 [4:0] $end
$var wire 5 D write_addr [4:0] $end
$var wire 32 E write_data [31:0] $end
$var wire 32 F read_data1 [31:0] $end
$var wire 32 G read_data2 [31:0] $end
$var integer 32 V! i [31:0] $end
$upscope $end
$scope module signed_extend_instance $end
$var wire 16 W! data_in [15:0] $end
$var wire 32 H data_out [31:0] $end
$upscope $end
$scope module hud_instance $end
$var wire 5 X! id_rs [25:21] $end
$var wire 5 Y! id_rt [20:16] $end
$var wire 5 N ex_rd [4:0] $end
$var wire 1 O ex_mem_read $end
$var reg 1 Z! pc_write_en $end
$var reg 1 [! if_id_write_en $end
$var reg 1 \! control_mux_sel $end
$upscope $end
$scope module fwd_unit_instance $end
$var wire 5 c ex_rs [4:0] $end
$var wire 5 d ex_rt [4:0] $end
$var wire 5 q mem_rd [4:0] $end
$var wire 1 p mem_reg_write $end
$var wire 5 s wb_rd [4:0] $end
$var wire 1 r wb_reg_write $end
$var reg 2 ]! forward_a [1:0] $end
$var reg 2 ^! forward_b [1:0] $end
$upscope $end
$scope module mux_forward_a $end
$var wire 32 ` in0 [31:0] $end
$var wire 32 E in1 [31:0] $end
$var wire 32 )! in2 [31:0] $end
$var wire 2 n sel [1:0] $end
$var wire 32 t out [31:0] $end
$upscope $end
$scope module mux_forward_b $end
$var wire 32 a in0 [31:0] $end
$var wire 32 E in1 [31:0] $end
$var wire 32 )! in2 [31:0] $end
$var wire 2 o sel [1:0] $end
$var wire 32 u out [31:0] $end
$upscope $end
$scope module mux_alu_src $end
$var wire 32 u in0 [31:0] $end
$var wire 32 b in1 [31:0] $end
$var wire 1 j sel $end
$var wire 32 v out [31:0] $end
$upscope $end
$scope module alu_ctrl_instance $end
$var wire 2 k alu_op [1:0] $end
$var wire 6 _! funct [5:0] $end
$var wire 6 `! opcode [31:26] $end
$var reg 4 a! alu_ctrl [3:0] $end
$upscope $end
$scope module alu_instance $end
$var wire 32 t a [31:0] $end
$var wire 32 v b [31:0] $end
$var wire 4 w alu_control [3:0] $end
$var reg 32 b! result [31:0] $end
$var wire 1 y zero $end
$upscope $end
$scope module dmem_instance $end
$var wire 1 # clk $end
$var wire 1 $ rst_n $end
$var wire 1 0! mem_read_en $end
$var wire 1 /! mem_write_en $end
$var wire 3 2! mem_op [2:0] $end
$var wire 32 )! address [31:0] $end
$var wire 32 +! write_data [31:0] $end
$var reg 32 c! read_data [31:0] $end
$var integer 32 d! i [31:0] $end
$upscope $end
$scope module mux_mem_to_reg $end
$var wire 32 >! in0 [31:0] $end
$var wire 32 =! in1 [31:0] $end
$var wire 1 A! sel $end
$var wire 32 C! out [31:0] $end
$upscope $end
$scope module mux_jal $end
$var wire 32 C! in0 [31:0] $end
$var wire 32 <! in1 [31:0] $end
$var wire 1 B! sel $end
$var wire 32 E out [31:0] $end
$upscope $end
$upscope $end
$upscope $end
$enddefinitions $end

#0
$dumpvars
0!
b0 !!
0"
0"!
0#
0#!
0$
0$!
b100 %
0%!
b100 &
0&!
b0 '
b0 '!
b100000000000010000000000000101 (
b0 (!
1)
bz )!
1*
0*!
0+
b0 +!
0,
b0 ,!
b0 -
0-!
0.
0.!
b0 /
0/!
00
00!
b0 1
01!
b0 2
b0 2!
b0 3
b0 3!
b0 4
bz 4!
b0 5
b0 5!
16
b0 6!
07
b0 7!
08
b0 8!
09
09!
0:
0:!
0;
0;!
1<
b0 <!
b10 =
b0 =!
0>
b0 >!
0?
b0 ?!
0@
0@!
zA
0A!
b0 B
0B!
b0 C
b0 C!
b0 D
0D!
b0 E
0E!
b0 F
b0 F!
b0 G
b100000000000010000000000000101 G!
b0 H
b0 H!
b0 I
b0 I!
0J
1J!
0K
0K!
0L
0L!
b0 M
0M!
b0 N
0N!
0O
0O!
b0 P
1P!
b0 Q
b10 Q!
b0 R
0R!
b0 S
0S!
b0 T
0T!
b0 U
1U!
b0 V
bx V!
0W
b0 W!
0X
b0 X!
0Y
b0 Y!
0Z
1Z!
0[
1[!
b0 \
0\!
0]
b0 ]!
b0 ^
b0 ^!
b0 _
b0 _!
b0 `
b0 `!
b0 a
b0 a!
b0 b
b0 b!
b0 c
b0 c!
b0 d
bx d!
b0 e
0f
0g
0h
0i
0j
b0 k
0l
b0 m
b0 n
b0 o
0p
b0 q
0r
b0 s
b0 t
b0 u
b0 v
b0 w
b0 x
1y
b0 z
b0 {
b0 |
0}
b0 ~
$end

#5000
1!
1#

#10000
0!
0#

#15000
1!
1#

#20000
0!
1"
0#
1$

#25000
1!
1#
b1000 %
b1000 &
b100 '
b100000000000100000000000000011 (
1*!
b11000 -
b1000000000000010100 /
b100 2
b100000000000010000000000000101 3
b100000000000010000000000000101 4
b100 5
bz 5!
bz 7!
1;
0<
bz <!
b0 =
bz >!
b1 C
bz C!
bz E
b100 F!
b100000000000100000000000000011 G!
b101 H
b1000 H!
b10100 I
b101 I!
1J!
b1 M
1O!
0P!
b0 Q!
0U!
1W
b101 W!
b0 X!
b1 Y!
b10 \
b1000 a!
1f
b10 k
b1000 w
1}

#30000
0!
0#

#35000
1!
1"!
1#
b1100 %
b1100 &
b1000 '
b1000100001100000100000 (
b10100 -
1-!
b10000000000000001100 /
b1000 2
b100000000000100000000000000011 3
b100000000000100000000000000011 4
b1000 5
b10 C
b1000 F!
b1000100001100000100000 G!
b11 H
b1000 H!
b1100 I
b11 I!
1J!
b10 M
1O!
b100 P
b101 S
b1 U
b1 V
b11 W!
b0 X!
b10 Y!
1[
b0 \
b100 _
b101 _!
b0 `!
b0 a!
b101 b
b101 b!
b1 d
b1 e
1j
b0 k
b101 v
b0 w
b101 x
0y

#40000
0!
0#

#45000
1!
b1 !!
1#
b10000 %
b10000 &
b1100 '
b10101100000000110000000000000000 (
b100 (!
0*!
b1 ,!
b110000010001100 -
b100010000110000010000000 /
b1100 2
b1000100001100000100000 3
b1000100001100000100000 4
b1100 5
19!
0;
1<
b10 =
1@!
b1 B
1D!
b1100 F!
b10101100000000110000000000000000 G!
b1100000100000 H
b0 H!
b110000010000000 I
b100000 I!
1J!
b11 M
b1 N
0O!
b1000 P
1P!
b10 Q!
b11 S
b10 U
1U!
b10 V
b1100000100000 W!
b1 X!
b10 Y!
b1000 _
b11 _!
b0 `!
b11 b
b11 b!
b10 d
b10 e
1p
1r
b11 v
b11 x
b100 {
b101 |
0}

#50000
0!
0#

#55000
1!
b10 !!
1#
b10100 %
b10100 &
b10000 '
b10001100000001000000000000000000 (
b1000 (!
b10 ,!
b10000 -
b11000000000000000000 /
b10000 2
b10101100000000110000000000000000 3
b10101100000000110000000000000000 4
b10000 5
06
18
b1 8!
1;
0<
b0 =
b1 ?!
b0 B
b11 C
b1 D
b10000 F!
b10001100000001000000000000000000 G!
b0 H
b101011 H!
b0 I
b0 I!
0J!
1L!
b11 M
b10 N
1O!
b1100 P
0P!
b0 Q!
b1100000100000 S
b1 T
0U!
b11 V
b0 W!
b0 X!
b11 Y!
0[
b10 \
b10 ]!
b1100 _
b100000 _!
b0 `!
b1100000100000 b
bx b!
b1 c
b11 e
0j
b10 k
b10 n
b1 q
b1 s
bz t
b0 v
bx x
xy
b1000 {
b11 |

#60000
0!
0#

#65000
1!
b11 !!
1#
b11000 %
b11000 &
b10100 '
b0 (
b1100 (!
x*!
b11 ,!
b10100 -
b100000000000000000000 /
b10100 2
b10001100000001000000000000000000 3
b10001100000001000000000000000000 4
b10100 5
16
17
08
b10 8!
19
b10 ?!
b100 C
b10 D
b10100 F!
b0 G!
b100011 H!
b0 I!
1J!
1K!
0L!
b100 M
1M!
b11 N
1O!
b10000 P
b0 S
b0 T
b11 U
0W
b0 W!
b0 X!
1Y
b100 Y!
1[
b0 \
b0 ]!
b10 ^
b10000 _
b0 _!
b0 `!
b0 b
b0 b!
b0 c
b11 d
0f
1h
1j
b0 k
b10 m
b0 n
b10 q
b10 s
b0 t
b0 x
1y
b1100 {
bx |
x}

#70000
0!
0#

#75000
1!
0"!
1#
1$!
b11100 %
b11100 &
b11000 '
b10 '!
b10101100000000110000000000000000 (
b10000 (!
1*!
b11000 -
0-!
b0 /
1/!
b11000 2
b10 2!
b0 3
b0 4
b11000 5
07
b11 8!
09
0;
1<
b10 =
b11 ?!
b0 C
b11 D
b11000 F!
b10101100000000110000000000000000 G!
b0 H!
b0 I!
1J!
0K!
b0 M
0M!
0O!
b10100 P
1P!
b10 Q!
b100 U
1U!
b100 V
1W
b0 W!
1X
b0 X!
0Y
b0 Y!
1Z
b10100 _
b100 d
b100 e
1f
1g
0h
1i
b11 q
b11 s
b10000 {
b0 |
1}

#80000
0!
0#

#85000
1!
b100 !!
1"!
1#
1#!
0$!
b100000 %
1%!
b100000 &
b11100 '
b10001100000001110000000000000000 (
b10100 (!
b100 ,!
b11100 -
1-!
1.!
b11000000000000000000 /
0/!
10!
b11100 2
b10101100000000110000000000000000 3
bx 3!
b10101100000000110000000000000000 4
b11100 5
06
18
09!
1;
0<
b0 =
0@!
b11 C
0D!
b11100 F!
bz G
b10001100000001110000000000000000 G!
b101011 H!
b0 I!
0J!
1L!
b11 M
b100 N
1O
1O!
b11000 P
0P!
b0 Q!
b0 U
0U!
b0 V
b0 W!
0X
b0 X!
b11 Y!
0Z
0[
b10 \
b0 ^
b11000 _
b1000 a!
bx c!
b0 d
b0 e
0g
0i
0j
b10 k
b0 m
0p
0r
b1000 w
b10100 {

#90000
0!
0#

#95000
1!
b0 !!
1#
0#!
b100100 %
0%!
b100100 &
b100000 '
b0 '!
b10000111000110000000000000010 (
b11000 (!
b0 ,!
b100000 -
0.!
b111000000000000000000 /
00!
b100000 2
b0 2!
b10001100000001110000000000000000 3
b0 3!
b10001100000001110000000000000000 4
b100000 5
16
bx 6!
17
08
b100 8!
19
19!
1:!
bx =!
b100 ?!
1@!
1A!
b111 C
bx C!
b100 D
1D!
bx E
b100000 F!
b0 G
b10000111000110000000000000010 G!
b100011 H!
b0 I!
1J!
1K!
0L!
b111 M
1M!
b0 N
0O
1O!
b11100 P
bz R
b11 U
b11 V
0W
b0 W!
b0 X!
1Y
b111 Y!
1[
b0 \
b10 ^
b11100 _
bz a
b0 a!
b0 c!
b11 d
b11 e
0f
1h
1j
b0 k
b10 m
1p
b100 q
1r
b100 s
bz u
b0 w
bz z
b11000 {

#100000
0!
0#

#105000
1!
b11 !!
0"!
1#
1$!
b101x00 %
b101000 &
b100100 '
b10 '!
b100000000010000000000000000001 (
b11100 (!
bz +!
x,
b11 ,!
b101100 -
0-!
b11100011000000000000001000 /
1/!
b100100 2
b10 2!
b10000111000110000000000000010 3
b10000111000110000000000000010 4
b100100 5
06
b0 6!
07
b0 8!
09
1:
0:!
0;
b1 =
b0 =!
b0 ?!
0A!
b111 B
b11 C
bz C!
b0 D
bz E
b100100 F!
bz G
b100000000010000000000000000001 G!
b10 H
b100 H!
b1000 I
b10 I!
1J
0J!
0K!
xL
b11 M
0M!
b11 N
1N!
0O!
b100000 P
b1 Q!
b0 R
b111 U
b111 V
1W
b10 W!
1X
b111 X!
0Y
b11 Y!
1Z
b100000 _
b0 a
b111 d
b111 e
1f
1g
0h
1i
b0 q
b0 s
b0 u
b0 z
b11100 {
bz ~

#110000
0!
0#

#115000
1!
b111 !!
1"!
1#
1#!
0$!
b101100 %
1%!
b101100 &
b101000 '
b100000000010000000000000000010 (
b100000 (!
b0 +!
0,
b111 ,!
b101100 -
1-!
1.!
b1000000000000000000100 /
0/!
10!
b101000 2
b100000000010000000000000000001 3
bx 3!
b100000000010000000000000000001 4
b101000 5
16
b11 8!
09!
0:
1;
b0 =
b11 ?!
0@!
b0 B
b1000 C
b11 D
0D!
b101000 F!
b0 G
b100000000010000000000000000010 G!
b1 H
b1000 H!
b100 I
b1 I!
0J
1J!
0L
b1000 M
b111 N
0N!
1O
1O!
b100100 P
b0 Q!
bz R
b10 S
b111 T
b11 U
b11 V
0W
b1 W!
0X
b0 X!
b1000 Y!
0Z
0[
b1 \
b0 ^
b100100 _
b10 _!
b0 `!
bz a
b1 a!
b10 b
bx b!
b111 c
bx c!
b11 d
b11 e
0f
0g
0i
0j
b1 k
b0 m
0p
b11 q
0r
b11 s
bz u
bz v
b1 w
bx x
xy
bz z
b100000 {
b0 ~

#120000
0!
0#

#125000
1!
b11 !!
0"!
1#
0#!
b110000 %
0%!
b110000 &
b101100 '
b0 '!
b10101000010010000000000000001 (
b100100 (!
x*!
bz +!
b11 ,!
b110100 -
0-!
0.!
b1000000000000000001000 /
00!
b101100 2
b0 2!
b100000000010000000000000000010 3
b0 3!
b100000000010000000000000000010 4
b101100 5
bx 6!
b111 8!
19!
1:!
bx =!
b111 ?!
1@!
1A!
bx C!
b111 D
1D!
bx E
b101100 F!
b10101000010010000000000000001 G!
b10 H
b1000 H!
b1000 I
b10 I!
1J!
b11 N
0O
1O!
b101000 P
b0 R
b1 S
b0 T
b1000 U
b1000 V
1W
b10 W!
b0 X!
b1000 Y!
1[
b0 \
b101000 _
b1 _!
b0 `!
b0 a
b0 a!
b1 b
b1 b!
b0 c
b0 c!
b1000 d
b1000 e
1f
1j
b0 k
1p
b111 q
1r
b111 s
b0 u
b1 v
b0 w
b1 x
0y
b0 z
b100100 {
bx |
x}
bz ~

#130000
0!
0#

#135000
1!
b1000 !!
1"!
1#
b110100 %
b110100 &
b110000 '
b100000000010100000000000000001 (
b101000 (!
0*!
b0 +!
b1000 ,!
b110100 -
1-!
b100001001000000000000000100 /
b110000 2
b10101000010010000000000000001 3
b10101000010010000000000000001 4
b110000 5
06
b0 6!
b11 8!
09!
1:
0:!
0;
b1 =
b0 =!
b11 ?!
0@!
0A!
b1000 B
b1001 C
bz C!
b11 D
0D!
bz E
b110000 F!
b100000000010100000000000000001 G!
b1 H
b101 H!
b100 I
b1 I!
0J!
1K
b1001 M
b1000 N
1N!
0O!
b101100 P
b1 Q!
b10 S
b1 W!
b1000 X!
b1001 Y!
b101100 _
b10 _!
b0 `!
b10 b
b10 b!
0p
b11 q
0r
b11 s
b10 v
b10 x
b101000 {
b1 |
0}
b0 ~

#140000
0!
0#

#145000
1!
1#
b111000 %
b111000 &
b110100 '
b100000000010100000000000000010 (
b101100 (!
b111000 -
b1010000000000000000100 /
b110100 2
b100000000010100000000000000001 3
b100000000010100000000000000001 4
b110100 5
16
b1000 8!
19!
0:
1;
b0 =
b1000 ?!
1@!
b0 B
b1010 C
b1000 D
1D!
b110100 F!
b100000000010100000000000000010 G!
b1000 H!
b1 I!
1J!
0K
b1010 M
0N!
1O!
b110000 P
b0 Q!
b1 S
b1000 T
b1001 U
b1001 V
0W
b1 W!
b0 X!
b1010 Y!
0[
b1 \
b10 ]!
b110000 _
b1 _!
b0 `!
b1 a!
b1 b
bx b!
b1000 c
b1001 d
b1001 e
0f
0j
b1 k
b10 n
1p
b1000 q
1r
b1000 s
bz t
b0 v
b1 w
bx x
xy
b101100 {
b10 |

#150000
0!
0#

#155000
1!
b1001 !!
0"!
1#
b111100 %
b111100 &
b111000 '
b1000000000000000000000010000 (
b110000 (!
x*!
b1001 ,!
b1000000 -
0-!
b1010000000000000001000 /
b111000 2
b100000000010100000000000000010 3
b100000000010100000000000000010 4
b111000 5
b111000 F!
b1000000000000000000000010000 G!
b10 H
b1000 H!
b1000 I
b10 I!
1J!
b1001 N
1O!
b110100 P
b0 T
b1010 U
b1010 V
1W
b10 W!
b0 X!
b1010 Y!
1[
b0 \
b0 ]!
b110100 _
b0 a!
b1 b!
b0 c
b1010 d
b1010 e
1f
1j
b0 k
b0 n
b0 t
b1 v
b0 w
b1 x
0y
b110000 {
bx |
x}

#160000
0!
0#

#165000
1!
b1010 !!
1"!
1#
b1000000 %
b1000000 &
b111100 '
b100000000010110000000000000001 (
b110100 (!
0*!
b1010 ,!
b1111100 -
1-!
1.
b1000000 /
b111100 2
b1000000000000000000000010000 3
b1000000000000000000000010000 4
b111100 5
06
b1001 8!
09!
0;
1>
b1001 ?!
0@!
b0 C
b1001 D
0D!
b111100 F!
b100000000010110000000000000001 G!
b10000 H
b10 H!
b1000000 I
b10000 I!
0J!
b0 M
b1010 N
0O!
b111000 P
1R!
b10 S
b10000 W!
b0 X!
b0 Y!
b111000 _
b10 _!
b0 `!
b10 b
b10 b!
0p
b1001 q
0r
b1001 s
b10 v
b10 x
b110100 {
b1 |
0}

#170000
0!
0#

#175000
1!
1#
b1000100 %
b1000100 &
b1000000 '
b100000000010110000000000000010 (
b111000 (!
b1000100 -
0.
b1011000000000000000100 /
b1000000 2
b100000000010110000000000000001 3
b100000000010110000000000000001 4
b1000000 5
16
b1010 8!
19!
1;
0>
b1010 ?!
1@!
b1011 C
b1010 D
1D!
b1000000 F!
b100000000010110000000000000010 G!
b1 H
b1000 H!
b100 I
b1 I!
1J!
b1011 M
1O!
b111100 P
0R!
b10000 S
b0 U
b0 V
0W
b1 W!
b0 X!
b1011 Y!
0[
b111100 _
b10000 _!
b0 `!
b10000 b
b0 b!
b0 d
b0 e
0f
0j
1p
b1010 q
1r
b1010 s
b0 v
b0 x
1y
b111000 {
b10 |

#180000
0!
0#

#185000
1!
b0 !!
0"!
1#
b1001000 %
b1001000 &
b1000100 '
b1100000000000000000000010100 (
b111100 (!
1*!
b0 ,!
b1001100 -
0-!
b1011000000000000001000 /
b1000100 2
b100000000010110000000000000010 3
b100000000010110000000000000010 4
b1000100 5
b1000100 F!
b1100000000000000000000010100 G!
b10 H
b1000 H!
b1000 I
b10 I!
1J!
b0 N
1O!
b1000000 P
b1 S
b1011 U
b1011 V
1W
b10 W!
b0 X!
b1011 Y!
1[
b1000000 _
b1 _!
b0 `!
b1 b
b1 b!
b1011 d
b1011 e
1f
1j
b1 v
b1 x
0y
b111100 {
b0 |
1}

#190000
0!
0#

#195000
1!
b1011 !!
1"!
1#
b1010000 %
b1001100 &
b1001000 '
b100000000011000000000000000001 (
b1000000 (!
0*!
b1011 ,!
b10011000 -
1-!
1.
b1010000 /
b1001000 2
b1100000000000000000000010100 3
b1100000000000000000000010100 4
b1001000 5
b0 8!
09!
0;
1>
1?
b0 ?!
0@!
b0 C
b0 D
0D!
b1001000 F!
b100000000011000000000000000001 G!
b10100 H
b11 H!
b1010000 I
b10100 I!
1J!
b11111 M
b1011 N
0O!
b1000100 P
1R!
b10 S
1S!
b10100 W!
b0 X!
b0 Y!
b1000100 _
b10 _!
b0 `!
b10 b
b10 b!
0p
b0 q
0r
b0 s
b10 v
b10 x
b1000000 {
b1 |
0}

#200000
0!
0#

#205000
1!
1#
b1010100 %
b1010100 &
b1010000 '
b100000000011010000000000000001 (
b1000100 (!
b1010000 -
0.
b1100000000000000000100 /
b1001100 2
b100000000011000000000000000001 3
b100000000011000000000000000001 4
b1001100 5
b1011 8!
19!
1;
0>
0?
b1011 ?!
1@!
b1100 C
b1011 D
1D!
b1010000 F!
b100000000011010000000000000001 G!
b1 H
b1000 H!
b100 I
b1 I!
1J!
b1100 M
1O!
b1001000 P
0R!
b10100 S
0S!
b0 U
b11111 V
b1 W!
b0 X!
b1100 Y!
0[
1]
b1001000 _
b10100 _!
b0 `!
b10100 b
b0 b!
b0 d
b11111 e
0j
1l
1p
b1011 q
1r
b1011 s
b0 v
b0 x
1y
b1000100 {
b10 |

#210000
0!
0#

#215000
1!
b11111 !!
1#
b1011000 %
b1011000 &
1&!
b1010100 '
b100000000011010000000000000010 (
b1001000 (!
1*!
b11111 ,!
b1011000 -
b1101000000000000000100 /
11!
b1010100 2
b100000000011010000000000000001 3
b100000000011010000000000000001 4
b1001000 4!
b1010100 5
b1101 C
b1010100 F!
b100000000011010000000000000010 G!
b1000 H!
b1 I!
b1101 M
b11111 N
b1001100 P
b1 S
b1100 U
b1100 V
b1 W!
b0 X!
b1101 Y!
1[
0]
b1001100 _
b1 _!
b0 `!
b1 b
b1 b!
b1100 d
b1100 e
1j
0l
b1 v
b1 x
0y
b1001000 {
b0 |
1}

#220000
0!
0#

#225000
1!
b1100 !!
1#
b1011100 %
b1011100 &
0&!
b1011000 '
b11111000000000000000001000 (
b1001100 (!
0*!
b1100 ,!
b1100000 -
b1101000000000000001000 /
01!
b1011000 2
b100000000011010000000000000010 3
b100000000011010000000000000010 4
bz 4!
b1011000 5
b1001000 5!
b11111 8!
1;!
b1001000 <!
b11111 ?!
1B!
b11111 D
b1001000 E
b1011000 F!
b11111000000000000000001000 G!
b10 H
b1000 H!
b1000 I
b10 I!
1J!
b1100 N
1O!
b1010100 P
b1101 U
b1101 V
b10 W!
b0 X!
b1101 Y!
b1010100 _
b1101 d
b1101 e
b11111 q
b11111 s
b1001100 {
b1 |
0}

#230000
0!
0#

#235000
1!
b1101 !!
1#
b1001000 %
b1100000 &
b1011100 '
b10101100000001000000000000000100 (
b1010100 (!
b1101 ,!
b1111100 -
1.
b1111100000000000000000100000 /
10
b1001000 1
b1011100 2
b11111000000000000000001000 3
b11111000000000000000001000 4
b1011100 5
bz 5!
06
b1100 8!
0;
0;!
1<
bz <!
b10 =
1>
b1100 ?!
1@
b11111 B
0B!
b0 C
b1100 D
bz E
b1001000 F
b1011100 F!
b10101100000001000000000000000100 G!
b1000 H
b0 H!
b100000 I
b1000 I!
0J!
b0 M
b1101 N
0O!
b1011000 P
1P!
b10 Q!
1R!
b10 S
1T!
1U!
b1000 W!
b11111 X!
b0 Y!
b1011000 _
b10 _!
b0 `!
b10 b
b10 b!
b1100 q
b1100 s
b10 v
b10 x
b1010100 {

#240000
0!
0#

#245000
1!
1#
b1001100 %
b1001100 &
b1001000 '
b100000000011000000000000000001 (
b1011000 (!
b1110000 -
0.
b100000000000000010000 /
00
b0 1
b1100000 2
b10101100000001000000000000000100 3
b10101100000001000000000000000100 4
b1100000 5
18
b1101 8!
1;
0<
b0 =
0>
b1101 ?!
0@
b0 B
b100 C
b1101 D
b0 F
b1001000 F!
bx G
b100000000011000000000000000001 G!
b100 H
b101011 H!
b10000 I
b100 I!
1L!
b100 M
1O!
b1011100 P
0P!
b1001000 Q
b0 Q!
0R!
b1000 S
b11111 T
0T!
b0 U
0U!
b0 V
0W
b100 W!
b0 X!
b100 Y!
0[
b10 \
b1011100 _
b1000 _!
b1001000 `
b0 `!
b1000 b
b1001000 b!
b11111 c
b0 d
b0 e
0f
0j
b10 k
b1101 q
b1101 s
b1001000 t
b0 v
b1001000 x
b1011000 {
b10 |

#250000
0!
0#

