cpp/verilog/Work/CPU_Project/CPU_Project.sim/sim_1/behav/xsim/data_memory_tb.vcd
$date
   Thu Sep 11 11:45:46 2025
$end

$version
  2025.1.0
  $dumpfile ("data_memory_tb.vcd") 
$end

$timescale
  1ps
$end

$scope module data_memory_tb $end
$var reg 1 ! clk $end
$var reg 1 " rst_n $end
$var reg 1 # mem_read_en $end
$var reg 1 $ mem_write_en $end
$var reg 3 % mem_op [2:0] $end
$var reg 32 & address [31:0] $end
$var reg 32 ' write_data [31:0] $end
$var wire 32 ( read_data [31:0] $end
$scope module uut $end
$var wire 1 ) clk $end
$var wire 1 * rst_n $end
$var wire 1 + mem_read_en $end
$var wire 1 , mem_write_en $end
$var wire 3 - mem_op [2:0] $end
$var wire 32 . address [31:0] $end
$var wire 32 / write_data [31:0] $end
$var reg 32 0 read_data [31:0] $end
$var integer 32 1 i [31:0] $end
$upscope $end
$upscope $end
$enddefinitions $end

#0
$dumpvars
0!
0"
0#
0$
b0 %
b0 &
b0 '
b0 (
0)
0*
0+
0,
b0 -
b0 .
b0 /
b0 0
bx 1
$end

#5000
1!
1)

#10000
0!
1"
0)
1*

#15000
1!
1)

#20000
0!
1$
b10000 &
b10100101 '
0)
1,
b10000 .
b10100101 /

#25000
1!
1)

#30000
0!
1#
0$
b100 %
b10100101 (
0)
1+
0,
b100 -
b10100101 0

#35000
1!
1)

#40000
0!
0)

#45000
1!
1)

#50000
0!
0#
1$
b1 %
b100000 &
b1011111011101111 '
b0 (
0)
0+
1,
b1 -
b100000 .
b1011111011101111 /
b0 0

#55000
1!
1)

#60000
0!
1#
0$
b101 %
b1011111011101111 (
0)
1+
0,
b101 -
b1011111011101111 0

#65000
1!
1)

#70000
0!
0)

#75000
1!
1)

#80000
0!
0#
1$
b10 %
b110000 &
b11011110101011011011111011101111 '
b0 (
0)
0+
1,
b10 -
b110000 .
b11011110101011011011111011101111 /
b0 0

#85000
1!
1)

#90000
0!
1#
0$
b11011110101011011011111011101111 (
0)
1+
0,
b11011110101011011011111011101111 0

#95000
1!
1)

#100000
0!
0)

#105000
1!
1)

#110000
0!
0#
1$
b0 %
b1000000 &
b11111111111111111111111110000111 '
b0 (
0)
0+
1,
b0 -
b1000000 .
b11111111111111111111111110000111 /
b0 0

#115000
1!
1)

#120000
0!
1#
0$
b11111111111111111111111110000111 (
0)
1+
0,
b11111111111111111111111110000111 0

#125000
1!
1)

#130000
0!
0)

#135000
1!
1)

#140000
0!
0#
1$
b1 %
b1010000 &
b11111111111111111000000000000000 '
b0 (
0)
0+
1,
b1 -
b1010000 .
b11111111111111111000000000000000 /
b0 0

#145000
1!
1)

#150000
0!
1#
0$
b11111111111111111000000000000000 (
0)
1+
0,
b11111111111111111000000000000000 0

