cpp/verilog/Work/CPU_Project/CPU_Project.sim/sim_1/behav/xsim/program_counter_tb.vcd
$date
   Wed Sep 10 14:31:15 2025
$end

$version
  2025.1.0
  $dumpfile ("program_counter_tb.vcd") 
$end

$timescale
  1ps
$end

$scope module program_counter_tb $end
$var reg 1 ! clk $end
$var reg 1 " rst $end
$var reg 1 # stall $end
$var reg 1 $ branch_taken $end
$var reg 1 % jump $end
$var reg 1 & jump_reg $end
$var reg 32 ' branch_addr [31:0] $end
$var reg 32 ( jump_addr [31:0] $end
$var reg 32 ) jump_reg_addr [31:0] $end
$var wire 32 * pc [31:0] $end
$scope module uut $end
$var wire 1 + clk $end
$var wire 1 , rst $end
$var wire 1 - stall $end
$var wire 1 . branch_taken $end
$var wire 1 / jump $end
$var wire 1 0 jump_reg $end
$var wire 32 1 branch_addr [31:0] $end
$var wire 32 2 jump_addr [31:0] $end
$var wire 32 3 jump_reg_addr [31:0] $end
$var reg 32 4 pc [31:0] $end
$upscope $end
$upscope $end
$enddefinitions $end

#0
$dumpvars
0!
1"
0#
0$
0%
0&
b0 '
b0 (
b0 )
b0 *
0+
1,
0-
0.
0/
00
b0 1
b0 2
b0 3
b0 4
$end

#5000
1!
1+

#10000
0!
0+

#12000
0"
0,

#15000
1!
b100 *
1+
b100 4

#20000
0!
0+

#25000
1!
b1000 *
1+
b1000 4

#30000
0!
0+

#35000
1!
b1100 *
1+
b1100 4

#40000
0!
0+

#42000
1$
b1000000000000 '
1.
b1000000000000 1

#45000
1!
b1000000000000 *
1+
b1000000000000 4

#50000
0!
0+

#52000
0$
0.

#55000
1!
b1000000000100 *
1+
b1000000000100 4

#60000
0!
0+

#62000
1%
b10000000000000 (
1/
b10000000000000 2

#65000
1!
b10000000000000 *
1+
b10000000000000 4

#70000
0!
0+

#72000
0%
0/

#75000
1!
b10000000000100 *
1+
b10000000000100 4

#80000
0!
0+

#82000
1#
1-

#85000
1!
1+

#90000
0!
0+

#95000
1!
1+

#100000
0!
0+

#102000
0#
0-

#105000
1!
b10000000001000 *
1+
b10000000001000 4

